<?xml version="1.0" encoding="utf-8"?>
<!-- Generator: Adobe Illustrator 26.0.1, SVG Export Plug-In . SVG Version: 6.00 Build 0)  -->
<svg version="1.1" id="Layer_1" xmlns="http://www.w3.org/2000/svg" xmlns:xlink="http://www.w3.org/1999/xlink" x="0px" y="0px"
	 viewBox="0 0 41 41" style="enable-background:new 0 0 41 41;" xml:space="preserve">
<style type="text/css">
	.st0{fill:none;stroke:#FFFFFF;stroke-width:3.4167;stroke-linecap:round;stroke-linejoin:round;}
</style>
<path class="st0" d="M5.1,20.5h30.8"/>
<path class="st0" d="M5.1,10.3h30.8"/>
<path class="st0" d="M5.1,30.8h30.8"/>
</svg>
